[
  {
    "id": 1,
    "age": 32,
    "name": "Mark",
    "result": "OK",
    "sum": 2780,
    "surname": "Douglas"
  },
  {
    "id": 2,
    "age": 18,
    "name": "Bob",
    "result": "NO",
    "sum": 2500,
    "surname": "Boolean"
  },
  {
    "id": 3,
    "age": 28,
    "name": "Tom",
    "result": "OK",
    "sum": 2500,
    "surname": "Cat"
  },
  {
    "id": 4,
    "age": 28,
    "name": "Tom",
    "result": "NO",
    "sum": 7800,
    "surname": "Tomaso"
  },
  {
    "id": 5,
    "age": 17,
    "name": "Tomas",
    "result": "NO",
    "sum": 1500,
    "surname": "Jones"
  },
  {
    "id": 6,
    "age": 52,
    "name": "Elle",
    "result": "OK",
    "sum": 1500,
    "surname": "Jones"
  },
  {
    "id": 7,
    "age": 34,
    "name": "Helen",
    "result": "OK",
    "sum": 2500,
    "surname": "Marinero"
  },
  {
    "id": 8,
    "age": 32,
    "name": "Cat",
    "result": "NO",
    "sum": 3201,
    "surname": "Tom"
  },
  {
    "id": 10,
    "age": 23,
    "name": "Spring",
    "result": "OK",
    "sum": 2000,
    "surname": "Boot"
  },
  {
    "id": 9,
    "age": 23,
    "name": "Kate",
    "result": "OK",
    "sum": 2000,
    "surname": "Nik"
  },
  {
    "id": 11,
    "age": 27,
    "name": "Test",
    "result": "OK",
    "sum": 1600,
    "surname": "Newuser"
  }
]